metadata_Alignment
…
## Parsed with column specification:
## cols(
##   FILE = col_character(),
##   MACHINE = col_character(),
##   FLOWCELL = col_character(),
##   LANE = col_integer(),
##   READ = col_integer(),
##   FILTERED = col_character(),
##   INDEX = col_character()
## )

lanes

## # A tibble: 66 x 7
##    FILE             MACHINE        FLOWCELL   LANE  READ FILTERED INDEX   
##    <chr>            <chr>          <chr>     <int> <int> <chr>    <chr>   
##  1 C_4_1_10_1.fq.gz @ST-E00522:235 HCLF5CCXY     1     1 N        NGGCTTCA
##  2 C_4_1_10_2.fq.gz @ST-E00522:235 HCLF5CCXY     1     2 N        NGGCTTCA
##  3 C_4_1_11_1.fq.gz @ST-E00522:235 HCLF5CCXY     1     1 N        NGGTGGTA
##  4 C_4_1_11_2.fq.gz @ST-E00522:235 HCLF5CCXY     1     2 N        NGGTGGTA
##  5 C_4_1_1_1.fq.gz  @ST-E00522:235 HCLF5CCXY     1     1 N        NTCGTAGA
##  6 C_4_1_1_2.fq.gz  @ST-E00522:235 HCLF5CCXY     1     2 N        NTCGTAGA
##  7 C_4_1_2_1.fq.gz  @ST-E00522:235 HCLF5CCXY     1     1 N        NTCTGTCA
##  8 C_4_1_2_2.fq.gz  @ST-E00522:235 HCLF5CCXY     1     2 N        NTCTGTCA
##  9 C_4_1_3_1.fq.gz  @ST-E00522:235 HCLF5CCXY     5     1 N        GTGTTC  
## 10 C_4_1_3_2.fq.gz  @ST-E00522:235 HCLF5CCXY     5     2 N        GTGTTC  
## # ... with 56 more rows

Inputed STARInputList.csv which enables me to link sample name with original file in Metadata_seq.csv. Combine both to line machine, flowcell and lane to smaple name. Ill use this information once I have produced a tidy dataframe from my alignment output

sampleNames <- read_delim(file = "C:/Users/gre486/DATASCHOOL/challenge/canola/doc/STARInputList.csv", delim = ' ', col_names = FALSE)

## Parsed with column specification:
## cols(
##   X1 = col_character(),
##   X2 = col_character(),
##   X3 = col_character()
## )

sampleNames

## # A tibble: 33 x 3
##    X1         X2              X3             
##    <chr>      <chr>           <chr>          
##  1 SapRepA    C_4_1_1_1.fq.gz C_4_1_1_2.fq.gz
##  2 SapRepB    C_4_2_1_1.fq.gz C_4_2_1_2.fq.gz
##  3 SapRepC    C_4_3_1_1.fq.gz C_4_3_1_2.fq.gz
##  4 WesRepA    C_4_1_2_1.fq.gz C_4_1_2_2.fq.gz
##  5 WesRepB    C_4_2_2_1.fq.gz C_4_2_2_2.fq.gz
##  6 WesRepC    C_4_3_2_1.fq.gz C_4_3_2_2.fq.gz
##  7 GarRepA    C_4_1_3_1.fq.gz C_4_1_3_2.fq.gz
##  8 GarRepB    C_4_2_3_1.fq.gz C_4_2_3_2.fq.gz
##  9 GarRepC    C_4_3_3_1.fq.gz C_4_3_3_2.fq.gz
## 10 NX0052RepA C_4_1_4_1.fq.gz C_4_1_4_2.fq.gz
## # ... with 23 more rows

sample_lanes<- na.omit(inner_join(lanes, sampleNames, by = c("FILE" = "X2")))
sample_lanes$Samples <- paste(sample_lanes$X1,"Log.txt", sep = "")
sample_lanes <- sample_lanes[,c(10,2:4)]
sample_lanes

## # A tibble: 33 x 4
##    Samples             MACHINE        FLOWCELL   LANE
##    <chr>               <chr>          <chr>     <int>
##  1 GxNX1132RepALog.txt @ST-E00522:235 HCLF5CCXY     1
##  2 NX1132xGRepALog.txt @ST-E00522:235 HCLF5CCXY     1
##  3 SapRepALog.txt      @ST-E00522:235 HCLF5CCXY     1
##  4 WesRepALog.txt      @ST-E00522:235 HCLF5CCXY     1
##  5 GarRepALog.txt      @ST-E00522:235 HCLF5CCXY     5
##  6 NX0052RepALog.txt   @ST-E00522:235 HCLF5CCXY     5
##  7 NX1132RepALog.txt   @ST-E00522:235 HCLF5CCXY     1
##  8 SxWRepALog.txt      @ST-E00522:235 HCLF5CCXY     1
##  9 WxSRepALog.txt      @ST-E00318:426 H7YGFCCXY     1
## 10 GxNX0052RepALog.txt @ST-E00522:235 HCLF5CCXY     1
## # ... with 23 more rows

I need to change rows and columns to make the data tidy from the alignment output. I also want to add genotype and replicate in so I can do some grouping in ggplot

tidy_data <-data %>% gather(Samples, numbers, GarRepALog.txt:WxSRepCLog.txt) %>% spread(parameters, numbers)
tidy_data

## # A tibble: 33 x 20
##    Samples Average_input_r~ Average_mapped_~ Deletion_averag~ Finished_on
##    <chr>   <chr>            <chr>            <chr>            <chr>      
##  1 GarRep~ 300              296.70           2.50             Sep 06 12:~
##  2 GarRep~ 300              296.51           2.60             Sep 06 12:~
##  3 GarRep~ 300              296.51           2.56             Sep 06 12:~
##  4 GxNX00~ 300              295.64           2.91             Sep 06 12:~
##  5 GxNX00~ 300              296.38           2.55             Sep 06 12:~
##  6 GxNX00~ 300              296.39           2.64             Sep 06 12:~
##  7 GxNX11~ 300              296.26           2.93             Sep 06 12:~
##  8 GxNX11~ 300              296.67           2.51             Sep 06 12:~
##  9 GxNX11~ 300              295.97           2.71             Sep 06 12:~
## 10 NX0052~ 300              296.08           2.51             Sep 06 12:~
## # ... with 23 more rows, and 15 more variables:
## #   Insertion_average_length <chr>,
## #   `Mapping_speed,_Million_of_reads_per_hour` <chr>,
## #   Number_of_chimeric_reads <chr>, Number_of_input_reads <chr>,
## #   Number_of_reads_mapped_to_multiple_loci <chr>,
## #   Number_of_reads_mapped_to_too_many_loci <chr>,
## #   `Number_of_splices:_Annotated_(sjdb)` <chr>,
## #   `Number_of_splices:_AT/AC` <chr>, `Number_of_splices:_GC/AG` <chr>,
## #   `Number_of_splices:_GT/AG` <chr>,
## #   `Number_of_splices:_Non-canonical` <chr>,
## #   `Number_of_splices:_Total` <chr>, Started_job_on <chr>,
## #   Started_mapping_on <chr>, Uniquely_mapped_reads_number <chr>

tidy_data$genotype <-gsub( "^(.+)Rep.*" , "\\1" , tidy_data$Samples )
tidy_data$replicates <-gsub( "^.+(Rep.).*", "\\1", tidy_data$Samples)
tidy_data

## # A tibble: 33 x 22
##    Samples Average_input_r~ Average_mapped_~ Deletion_averag~ Finished_on
##    <chr>   <chr>            <chr>            <chr>            <chr>      
##  1 GarRep~ 300              296.70           2.50             Sep 06 12:~
##  2 GarRep~ 300              296.51           2.60             Sep 06 12:~
##  3 GarRep~ 300              296.51           2.56             Sep 06 12:~
##  4 GxNX00~ 300              295.64           2.91             Sep 06 12:~
##  5 GxNX00~ 300              296.38           2.55             Sep 06 12:~
##  6 GxNX00~ 300              296.39           2.64             Sep 06 12:~
##  7 GxNX11~ 300              296.26           2.93             Sep 06 12:~
##  8 GxNX11~ 300              296.67           2.51             Sep 06 12:~
##  9 GxNX11~ 300              295.97           2.71             Sep 06 12:~
## 10 NX0052~ 300              296.08           2.51             Sep 06 12:~
## # ... with 23 more rows, and 17 more variables:
## #   Insertion_average_length <chr>,
## #   `Mapping_speed,_Million_of_reads_per_hour` <chr>,
## #   Number_of_chimeric_reads <chr>, Number_of_input_reads <chr>,
## #   Number_of_reads_mapped_to_multiple_loci <chr>,
## #   Number_of_reads_mapped_to_too_many_loci <chr>,
## #   `Number_of_splices:_Annotated_(sjdb)` <chr>,
## #   `Number_of_splices:_AT/AC` <chr>, `Number_of_splices:_GC/AG` <chr>,
## #   `Number_of_splices:_GT/AG` <chr>,
## #   `Number_of_splices:_Non-canonical` <chr>,
## #   `Number_of_splices:_Total` <chr>, Started_job_on <chr>,
## #   Started_mapping_on <chr>, Uniquely_mapped_reads_number <chr>,
## #   genotype <chr>, replicates <chr>

I now need to combine metadata from sequencing (Machine,flowcell @ lane) with metadata from alignment

final_data <- left_join(tidy_data, sample_lanes, by = "Samples")
final_data

## # A tibble: 33 x 25
##    Samples Average_input_r~ Average_mapped_~ Deletion_averag~ Finished_on
##    <chr>   <chr>            <chr>            <chr>            <chr>      
##  1 GarRep~ 300              296.70           2.50             Sep 06 12:~
##  2 GarRep~ 300              296.51           2.60             Sep 06 12:~
##  3 GarRep~ 300              296.51           2.56             Sep 06 12:~
##  4 GxNX00~ 300              295.64           2.91             Sep 06 12:~
##  5 GxNX00~ 300              296.38           2.55             Sep 06 12:~
##  6 GxNX00~ 300              296.39           2.64             Sep 06 12:~
##  7 GxNX11~ 300              296.26           2.93             Sep 06 12:~
##  8 GxNX11~ 300              296.67           2.51             Sep 06 12:~
##  9 GxNX11~ 300              295.97           2.71             Sep 06 12:~
## 10 NX0052~ 300              296.08           2.51             Sep 06 12:~
## # ... with 23 more rows, and 20 more variables:
## #   Insertion_average_length <chr>,
## #   `Mapping_speed,_Million_of_reads_per_hour` <chr>,
## #   Number_of_chimeric_reads <chr>, Number_of_input_reads <chr>,
## #   Number_of_reads_mapped_to_multiple_loci <chr>,
## #   Number_of_reads_mapped_to_too_many_loci <chr>,
## #   `Number_of_splices:_Annotated_(sjdb)` <chr>,
## #   `Number_of_splices:_AT/AC` <chr>, `Number_of_splices:_GC/AG` <chr>,
## #   `Number_of_splices:_GT/AG` <chr>,
…
